1001,John Doe,Manager,1990-07-28,7884551224,Mumbai,55000.0
1002,Charls Brown,Marketing Manager,1984-03-08,8795462130,Mumbai,75000.0
1003,Emily Watson,Developer,1991-09-02,9874563210,Pune,42000.0
1004,Gregory Stien,System Admin,1987-09-13,7984632152,Chennai,30000.0
1005,David Appleman,Manager,1982-03-12,9786214530,Mumbai,85000.0
1006,Don Liu,Technical Architect,1993-06-18,8547963210,Pune,45000.0
1007,Smith Cooper,Developer,1995-09-28,8547963210,Mumbai,35420.0
1008,Laty Mandela,System Admin,1990-04-21,7984651323,Chennai,40000.0
1009,Nathan Jones,Marketing Manager,1987-05-08,77485692135,Pune,85000.0
1010,Jack Snow,Technical Architect,1989-10-30,9977458264,Pune,70000.0